TMDB Prediction - R-Collab
…
## Parsed with column specification:
## cols(
##   .default = col_character(),
##   id = col_double(),
##   budget = col_double(),
##   popularity = col_double(),
##   runtime = col_double(),
##   revenue = col_double()
## )

## See spec(...) for full column specifications.

print(data)

## # A tibble: 3,000 x 23
##       id belongs_to_coll~ budget genres homepage imdb_id original_langua~
##    <dbl> <chr>             <dbl> <chr>  <chr>    <chr>   <chr>           
##  1     1 [{'id': 313576,~ 1.40e7 [{'id~ <NA>     tt2637~ en              
##  2     2 [{'id': 107674,~ 4.00e7 [{'id~ <NA>     tt0368~ en              
##  3     3 <NA>             3.30e6 [{'id~ http://~ tt2582~ en              
##  4     4 <NA>             1.20e6 [{'id~ http://~ tt1821~ hi              
##  5     5 <NA>             0.     [{'id~ <NA>     tt1380~ ko              
##  6     6 <NA>             8.00e6 [{'id~ <NA>     tt0093~ en              
##  7     7 <NA>             1.40e7 [{'id~ http://~ tt0431~ en              
##  8     8 <NA>             0.     [{'id~ <NA>     tt0391~ en              
##  9     9 [{'id': 256377,~ 0.     [{'id~ <NA>     tt0117~ en              
## 10    10 <NA>             6.00e6 [{'id~ <NA>     tt0310~ en              
## # ... with 2,990 more rows, and 16 more variables: original_title <chr>,
## #   overview <chr>, popularity <dbl>, poster_path <chr>,
## #   production_companies <chr>, production_countries <chr>,
## #   release_date <chr>, runtime <dbl>, spoken_languages <chr>,
## #   status <chr>, tagline <chr>, title <chr>, Keywords <chr>, cast <chr>,
## #   crew <chr>, revenue <dbl>
…
